
PLAY [web] *****************************************************************************************************

TASK [Gathering Facts] *****************************************************************************************
ok: [172.30.0.134]

TASK [Check to see if site1 is online] *************************************************************************
ok: [172.30.0.134]

TASK [Check to see if site2 is online] *************************************************************************
ok: [172.30.0.134]

TASK [Updating 172.30.0.134] ***********************************************************************************
changed: [172.30.0.134]

TASK [Disable Dav] *********************************************************************************************
ok: [172.30.0.134]

PLAY [web] *****************************************************************************************************

TASK [Gathering Facts] *****************************************************************************************
ok: [172.30.0.19]

TASK [Check to see if site1 is online] *************************************************************************
ok: [172.30.0.19]

TASK [Check to see if site2 is online] *************************************************************************
ok: [172.30.0.19]

TASK [Updating 172.30.0.19] ************************************************************************************
changed: [172.30.0.19]

TASK [Disable Dav] *********************************************************************************************
ok: [172.30.0.19]

PLAY RECAP *****************************************************************************************************
172.30.0.134               : ok=5    changed=1    unreachable=0    failed=0   
172.30.0.19                : ok=5    changed=1    unreachable=0    failed=0   

